{
    "serialVersion": 2,
    "name": "datatable-microservice-extension",
    "version": "1.0.0.0",
    "apiVersions": [
        1
    ],
    "moduleDependencies": [
        
    ],
    "externalVersionDependencies": [
        
    ],
    "externalApiDependencies": [
        
    ]
}